{
	"info": {
		"_postman_id": "74176699-63df-4ba2-9f20-0d06eee85c7c",
		"name": "Shop Products",
		"schema": "https://schema.getpostman.com/json/collection/v2.1.0/collection.json"
	},
	"item": [
		{
			"name": "Create a shop product",
			"event": [
				{
					"listen": "test",
					"script": {
						"exec": [
							"var jsonData = JSON.parse(responseBody);\r",
							"pm.collectionVariables.set(\"ShopProductId\", jsonData[\"insertedId\"]);\r",
							"\r",
							"pm.test(\"Status test\", function () {\r",
							"    pm.response.to.have.status(200);\r",
							"});"
						],
						"type": "text/javascript"
					}
				}
			],
			"request": {
				"method": "POST",
				"header": [],
				"body": {
					"mode": "raw",
					"raw": "{\r\n    \"name\": \"Prueba Shop Product\",\r\n    \"description\": \"Prueba descripcion Shop Product\",\r\n    \"type\": \"FOOD\",\r\n    \"image\": \"https://i.pinimg.com/474x/3b/44/b8/3b44b80324a0b2ed36012647684d6d32.jpg\",\r\n    \"expirationDate\": \"2022-03-28\",\r\n    \"priceSupplier\": \"20\",\r\n    \"stock\": \"1\"\r\n}",
					"options": {
						"raw": {
							"language": "json"
						}
					}
				},
				"url": {
					"raw": "http://localhost:3000/shopProducts",
					"protocol": "http",
					"host": [
						"localhost"
					],
					"port": "3000",
					"path": [
						"shopProducts"
					]
				}
			},
			"response": []
		},
		{
			"name": "Create an invalid shop product",
			"event": [
				{
					"listen": "test",
					"script": {
						"exec": [
							"pm.test(\"Status test\", function () {\r",
							"    pm.response.to.have.status(406);\r",
							"});"
						],
						"type": "text/javascript"
					}
				}
			],
			"request": {
				"method": "POST",
				"header": [],
				"body": {
					"mode": "raw",
					"raw": "{\r\n    \"name\": \"Prueba Shop Product\",\r\n    \"description\": \"Prueba descripcion Shop Product\",\r\n    \"type\": \"FOOD\",\r\n    \"image\": \"XDDD\",\r\n    \"expirationDate\": \"2022-03-28\",\r\n    \"priceSupplier\": \"20\",\r\n    \"stock\": \"1\"\r\n}",
					"options": {
						"raw": {
							"language": "json"
						}
					}
				},
				"url": {
					"raw": "http://localhost:3000/shopProducts",
					"protocol": "http",
					"host": [
						"localhost"
					],
					"port": "3000",
					"path": [
						"shopProducts"
					]
				}
			},
			"response": []
		},
		{
			"name": "Get all shop products",
			"event": [
				{
					"listen": "test",
					"script": {
						"exec": [
							"pm.test(\"Status test\", function () {\r",
							"    pm.response.to.have.status(200);\r",
							"});"
						],
						"type": "text/javascript"
					}
				}
			],
			"request": {
				"method": "GET",
				"header": [],
				"url": {
					"raw": "http://localhost:3000/shopProducts",
					"protocol": "http",
					"host": [
						"localhost"
					],
					"port": "3000",
					"path": [
						"shopProducts"
					]
				}
			},
			"response": []
		},
		{
			"name": "Get shop product by ID",
			"event": [
				{
					"listen": "test",
					"script": {
						"exec": [
							"pm.test(\"Status test\", function () {\r",
							"    pm.response.to.have.status(200);\r",
							"});"
						],
						"type": "text/javascript"
					}
				}
			],
			"request": {
				"method": "GET",
				"header": [],
				"url": {
					"raw": "http://localhost:3000/shopProducts/{{ShopProductId}}",
					"protocol": "http",
					"host": [
						"localhost"
					],
					"port": "3000",
					"path": [
						"shopProducts",
						"{{ShopProductId}}"
					]
				}
			},
			"response": []
		},
		{
			"name": "Get shop product by impossible ID",
			"event": [
				{
					"listen": "test",
					"script": {
						"exec": [
							"pm.test(\"Status test\", function () {\r",
							"    pm.response.to.have.status(404);\r",
							"});"
						],
						"type": "text/javascript"
					}
				}
			],
			"request": {
				"method": "GET",
				"header": [],
				"url": {
					"raw": "http://localhost:3000/shopProducts/1",
					"protocol": "http",
					"host": [
						"localhost"
					],
					"port": "3000",
					"path": [
						"shopProducts",
						"1"
					]
				}
			},
			"response": []
		},
		{
			"name": "Update a shop product by ID",
			"event": [
				{
					"listen": "test",
					"script": {
						"exec": [
							"pm.test(\"Status test\", function () {\r",
							"    pm.response.to.have.status(200);\r",
							"});"
						],
						"type": "text/javascript"
					}
				}
			],
			"request": {
				"method": "PUT",
				"header": [],
				"body": {
					"mode": "raw",
					"raw": "{\r\n    \"name\": \"Prueba Shop Product\",\r\n    \"description\": \"Prueba descripcion Shop Product\",\r\n    \"type\": \"CLEANING\",\r\n    \"image\": \"https://i.pinimg.com/474x/3b/44/b8/3b44b80324a0b2ed36012647684d6d32.jpg\",\r\n    \"expirationDate\": \"2022-03-30\",\r\n    \"priceSupplier\": \"20\",\r\n    \"stock\": \"1\",\r\n    \"shopId\": \"623cc50e1a5c08a4c4ec52cd\"\r\n}",
					"options": {
						"raw": {
							"language": "json"
						}
					}
				},
				"url": {
					"raw": "http://localhost:3000/shopProducts/{{ShopProductId}}",
					"protocol": "http",
					"host": [
						"localhost"
					],
					"port": "3000",
					"path": [
						"shopProducts",
						"{{ShopProductId}}"
					]
				}
			},
			"response": []
		},
		{
			"name": "Update a shop product by ID by impossible date",
			"event": [
				{
					"listen": "test",
					"script": {
						"exec": [
							"pm.test(\"Status test\", function () {\r",
							"    pm.response.to.have.status(406);\r",
							"});"
						],
						"type": "text/javascript"
					}
				}
			],
			"request": {
				"method": "PUT",
				"header": [],
				"body": {
					"mode": "raw",
					"raw": "{\r\n    \"name\": \"Prueba Shop Product\",\r\n    \"description\": \"Prueba descripcion Shop Product\",\r\n    \"type\": \"CLEANING\",\r\n    \"image\": \"https://i.pinimg.com/474x/3b/44/b8/3b44b80324a0b2ed36012647684d6d32.jpg\",\r\n    \"expirationDate\": \"2022-03-03\",\r\n    \"priceSupplier\": \"20\",\r\n    \"stock\": \"1\",\r\n    \"shopId\": \"623cc50e1a5c08a4c4ec52cd\"\r\n}",
					"options": {
						"raw": {
							"language": "json"
						}
					}
				},
				"url": {
					"raw": "http://localhost:3000/shopProducts/{{ShopProductId}}",
					"protocol": "http",
					"host": [
						"localhost"
					],
					"port": "3000",
					"path": [
						"shopProducts",
						"{{ShopProductId}}"
					]
				}
			},
			"response": []
		},
		{
			"name": "Update a shop product by impossible ID",
			"event": [
				{
					"listen": "test",
					"script": {
						"exec": [
							"pm.test(\"Status test\", function () {\r",
							"    pm.response.to.have.status(404);\r",
							"});"
						],
						"type": "text/javascript"
					}
				}
			],
			"request": {
				"method": "PUT",
				"header": [],
				"body": {
					"mode": "raw",
					"raw": "{\r\n    \"name\": \"Prueba Shop Product\",\r\n    \"description\": \"Prueba descripcion Shop Product\",\r\n    \"type\": \"CLEANING\",\r\n    \"image\": \"https://i.pinimg.com/474x/3b/44/b8/3b44b80324a0b2ed36012647684d6d32.jpg\",\r\n    \"expirationDate\": \"2022-03-30\",\r\n    \"priceSupplier\": \"20\",\r\n    \"stock\": \"1\",\r\n    \"shopId\": \"623cc50e1a5c08a4c4ec52cd\"\r\n}",
					"options": {
						"raw": {
							"language": "json"
						}
					}
				},
				"url": {
					"raw": "http://localhost:3000/shopProducts/1",
					"protocol": "http",
					"host": [
						"localhost"
					],
					"port": "3000",
					"path": [
						"shopProducts",
						"1"
					]
				}
			},
			"response": []
		},
		{
			"name": "Delete a shop product by ID",
			"event": [
				{
					"listen": "test",
					"script": {
						"exec": [
							"pm.test(\"Status test\", function () {\r",
							"    pm.response.to.have.status(200);\r",
							"});"
						],
						"type": "text/javascript"
					}
				}
			],
			"request": {
				"method": "DELETE",
				"header": [],
				"url": {
					"raw": "http://localhost:3000/shopProducts/{{ShopProductId}}",
					"protocol": "http",
					"host": [
						"localhost"
					],
					"port": "3000",
					"path": [
						"shopProducts",
						"{{ShopProductId}}"
					]
				}
			},
			"response": []
		},
		{
			"name": "Delete a shop product by impossible ID",
			"event": [
				{
					"listen": "test",
					"script": {
						"exec": [
							"pm.test(\"Status test\", function () {\r",
							"    pm.response.to.have.status(404);\r",
							"});"
						],
						"type": "text/javascript"
					}
				}
			],
			"request": {
				"method": "DELETE",
				"header": [],
				"url": {
					"raw": "http://localhost:3000/shopProducts/1",
					"protocol": "http",
					"host": [
						"localhost"
					],
					"port": "3000",
					"path": [
						"shopProducts",
						"1"
					]
				}
			},
			"response": []
		}
	],
	"variable": [
		{
			"key": "ShopId",
			"value": ""
		},
		{
			"key": "SupplierId",
			"value": ""
		},
		{
			"key": "ShopProductId",
			"value": ""
		}
	]
}